{"showMouse": true, 
"useFullscreen":true, 
"runningInBrowser":true, 
"useButtonStates" : true, 
"idleTimer": 15000, 
"idleAlpha":0.8, 
"idleText": "Touch here to begin", 
"idleVideo": "data/videos/Bentall-Kennedy-JAN-24.mp4",
"videoSmoothing": "true",

"home_title":"<span class='bold'>ATTRACTIVE RETAIL OPPORTUNITIES</span> The right mix. The right place. The right time.", 

"theProperties":[

{"propName":"WILLOWBROOK SHOPPING CENTRE", "propThumb":"data/thumbs/property-1/thumb-02.jpg",

"propDesc": "<p><span class='intro'>WILLOWBROOK SHOPPING CENTRE</span><br><span class='address'>19705 Fraser Highway, Langley, BC (Fraser Highway & Highway 10)</span><br><br>TYPE: Regional/Single Level/Enclosed<br><br>EXPANSION/RENOVATION: 1987/1991/1992/1999/2008<br><br>TOTAL GLA: 646,363 square feet<br><br>ANCHOR TENANTS:<br>The Bay\t\t131,146 square feet<br>Sears\t\t\t113,439 square feet<br>Target\t\t\t99,490 square feet<br>Toys ‘R’ Us\t\t39,040 square feet<br>Sport Chek\t\t20,173 square feet<br><br>ANCILLARY:  250,706 square feet (155 stores and services)<br><br><br><br><br><br><br><br><br>DEMOGRAPHICS (2015 PROJECTIONS):<br><br>\t\t\t\t\tPTA*\t\t\tSTA**<br>Total Population\t\t\t271,692\t\t526,083<br>Total Households\t\t\t98,367\t\t178,902<br>Average Household Income\t$87,345\t\t$93,131<br><span class='small'><br>*Primary Trade Area: Includes Langley City, Langley Township and Abbotsford<br>**Secondary Trade Area: Includes Surrey and Delta</span><br><br>MARKET SUMMARY:<br>Willowbrook Shopping Centre is the market dominant regional shopping centre in the Fraser Valley. Located inthe heart of Langley, Willowbrook is accessible and convenient to over 500,000 shoppers in the surrounding trade areas which include Surrey, White Rock Maple Ridge and Pitt Meadows.  The region surrounding the Centre has experienced rapid and continued population growth. Langley itself is the fastest growing community in Metro Vancouver with an anticipated population growth of 2.2% compounded annually through to 2021.</p>",

"floorPlan": {"thumbFile":"data/thumbs/property-1/floorplan.png", "imgFile":"data/plans/plan-1.swf"}, 
"galleryImgs":[
{"title":"", "thumbFile":"data/thumbs/property-1/thumb-01.jpg", "imgFile":"data/images/property-1/image-01.jpg"}, 
{"title":"", "thumbFile":"data/thumbs/property-1/thumb-02.jpg", "imgFile":"data/images/property-1/image-02.jpg"}, 
{"title":"", "thumbFile":"data/thumbs/property-1/thumb-03.jpg", "imgFile":"data/images/property-1/image-03.jpg"}, 
{"title":"", "thumbFile":"data/thumbs/property-1/thumb-04.jpg", "imgFile":"data/images/property-1/image-04.jpg"}
]},

{"propName":"THUNDERBIRD VILLAGE", "propThumb":"data/thumbs/property-2/thumb-01.jpg", 

"propDesc": "<p><span class='intro'>THUNDERBIRD VILLAGE</span><br><span class='address'>20159 — 88 Avenue, Langley, BC (200 St & 88 Ave)</span><br><br>TYPE: Open community centre with multi-family residential component (92 units)<br><br>YEAR OPENED: CRU 2006 / Cineplex Colossus Theatre - 1999<br><br>TOTAL GLA: 242,408 square feet<br><br>ANCHOR TENANTS:<br>Cineplex Odeon Colossus Theatre\t102,000 square feet<br>IGA Marketplace\t\t\t\t25,123 square feet<br>Shoppers Drug Mart\t\t\t15,834 square feet<br><br>DEMOGRAPHICS (2015 PROJECTIONS):<br><br>\t\t\t\t3 km\t\t5 km\t\t10 km<br>Total Population\t\t31,485\t64,369\t304,957<br>Total Households\t\t10,775\t22,326\t106,897<br>Avg. Household Income\t$99,111\t$101,856\t$91,871<br><br><br><br><br><br>MARKET SUMMARY:<br>Thunderbird Centre is the market dominant retail complex in the Walnut Grove district of the Township of Langley.  Accessed from Langley’s major thoroughfare (200th Street), and easily reached from the Trans Canada Highway, Thunderbird Centre is front and centre at the beginning and end of Langley commuters. The 200th Street / TransCanada Highway interchange is the most significant traffic hub in the Fraser Valley providing additional funneling of traffic from the nearby communities of Maple Ridge and Pitt Meadows via the Golden Ears Bridge. An added customer draw is created by Cineplex’s Colossus 18 Theatre / IMAX complex (102,000 s.f.),abundant casual dining options and the grocery/drug store anchored Village.</p>",

"floorPlan": {"thumbFile":"data/thumbs/property-2/floorplan.png", "imgFile":"data/plans/plan-2.swf"}, 
"galleryImgs":[
{"title":"", "thumbFile":"data/thumbs/property-2/thumb-01.jpg", "imgFile":"data/images/property-2/image-01.jpg"}, 
{"title":"", "thumbFile":"data/thumbs/property-2/thumb-02.jpg", "imgFile":"data/images/property-2/image-02.jpg"}, 
{"title":"", "thumbFile":"data/thumbs/property-2/thumb-03.jpg", "imgFile":"data/images/property-2/image-03.jpg"}, 
{"title":"", "thumbFile":"data/thumbs/property-2/thumb-04.jpg", "imgFile":"data/images/property-2/image-04.jpg"}
]},

{"propName":"HILLSIDE CENTRE", "propThumb":"data/thumbs/property-3/thumb-04.jpg", 

"propDesc": "<p><span class='intro'>HILLSIDE CENTRE</span><br><span class='address'>1644 Hillside Avenue, Victoria, BC (Shelbourne Street & Hillside Avenue)</span><br><br>TYPE: Regional Enclosed<br><br>EXPANSION RENOVATION: 1969/1986/1995/2012<br><br>TOTAL GLA: 589,183 square feet<br><br>ANCILLARY 202,273 square feet (106 stores and services)<br><br>ANCHOR TENANTS:<br>Sears\t\t\t\t\t148,803 square feet<br>Target\t\t\t\t\t148,000 square feet<br>Thrifty Foods\t\t\t31,667 square feet<br>Marshalls\t\t\t\t31,555 square feet<br>SportChek\t\t\t\t26,885 square feet<br><br>DEMOGRAPHICS (2017 PROJECTIONS):<br><br>\t\t\t\tTA*\t\tTA**\t\tVictoria<br>Total Population\t\t203,135\t231,010\t380,532<br>Total Households\t\t92,486\t105,185\t165,548<br>Avg. Household Inc.\t$81,718\t$83,050\t$88,453<br><span class='small'><br>*Trade Area: Includes Saanich<br>**Trade Area: Includes Saanich, View Royal and Esquimalt</span><br><br>MARKET SUMMARY:<br>Located in the City of Victoria, Hillside Centre is a 589,000 square foot regional shopping destination. Anchored by Sears, Target, Thrifty Foods and the market’s only Marshalls, the centre draws shoppers from throughout the capital region - a trade area that encompasses seven communities and more than 462,000 people. Hillside’s primary trade area includes students and faculty from the region’s largest post-secondary institutions including the University of Victoria and Camosun College as well as the affluent communities of Oak Bay and Uplands. Higher than average median incomes and a strong, stable public sector will continue to fuel consumer spending. In the final stages of a major renovation and expansion, Hillside’s rejuvenation has included the redevelopment of a larger inviting food court, new contemporary facades for storefronts, new entrances, increased natural light and a multitude of green initiatives.</p>",

"floorPlan": {"thumbFile":"data/thumbs/property-3/floorplan.png", "imgFile":"data/plans/plan-3.swf"}, 
"galleryImgs":[
{"title":"", "thumbFile":"data/thumbs/property-3/thumb-01.jpg", "imgFile":"data/images/property-3/image-01.jpg"}, 
{"title":"", "thumbFile":"data/thumbs/property-3/thumb-02.jpg", "imgFile":"data/images/property-3/image-02.jpg"}, 
{"title":"", "thumbFile":"data/thumbs/property-3/thumb-03.jpg", "imgFile":"data/images/property-3/image-03.jpg"}, 
{"title":"", "thumbFile":"data/thumbs/property-3/thumb-04.jpg", "imgFile":"data/images/property-3/image-04.jpg"}
]},

{"propName":"VILLAGE GREEN CENTRE", "propThumb":"data/thumbs/property-4/thumb-01.jpg", 

"propDesc": "<p><span class='intro'>VILLAGE GREEN CENTRE</span><br><span class='address'>4900 — 27th Street, Vernon, BC (off Highway 97)</span><br><br>TYPE: Enclosed Regional Shopping Centre<br><br>RENOVATION/REDEVELOPMENT: 1975/2002/2011 (Food Court - Fall 2011)<br><br>TOTAL GLA: 364,474 square feet<br><br>ANCILLARY: 103,716 square feet (62 stores)<br><br>ANCHOR TENANTS:<br>Target\t\t\t\t\t\t102,968 square feet<br>The Bay\t\t\t\t\t83,036 square feet<br>Save-On-Foods\t\t\t\t43,151 square feet<br>Winners\t\t\t\t\t23,998 square feet<br>Sport Chek\t\t\t\t\t15,000 square feet<br>BC Signature Liquor Store\t\t10,666 square feet<br><br>DEMOGRAPHICS (2015 PROJECTIONS):<br><br>\t\t\t\t10 km\t20 km\t30 km<br>Total Population\t\t62,610\t78,080\t94,858<br>Total Households\t\t25,498\t31,428\t37,991<br>Avg. Household Income\t$74,169\t$75,799\t$75,795<br><br><br><br>MARKET SUMMARY:<br>Vernon is located in the northern region of the Okanagan Valley, less than 50 kilometres from Kelowna. Vernon’s primary trade area is approximately 72,000 people with a secondary trade area of approximately 100,000 people. Village Green Centre is located on the northwest corner of 48th Avenue and 27th Street. 27th Street is the main commercial artery running north/south, which connects with Highway 97, the main north/south Highway in the Okanagan.</p>",

"floorPlan": {"thumbFile":"data/thumbs/property-4/floorplan.png", "imgFile":"data/plans/plan-4.swf"}, 
"galleryImgs":[
{"title":"", "thumbFile":"data/thumbs/property-4/thumb-01.jpg", "imgFile":"data/images/property-4/image-01.jpg"}, 
{"title":"", "thumbFile":"data/thumbs/property-4/thumb-02.jpg", "imgFile":"data/images/property-4/image-02.jpg"}, 
{"title":"", "thumbFile":"data/thumbs/property-4/thumb-03.jpg", "imgFile":"data/images/property-4/image-03.jpg"}, 
{"title":"", "thumbFile":"data/thumbs/property-4/thumb-04.jpg", "imgFile":"data/images/property-4/image-04.jpg"}
]},

{"propName":"BAYVIEW VILLAGE", "propThumb":"data/thumbs/property-5/thumb-01.jpg", 

"propDesc": "<p><span class='intro'>BAYVIEW VILLAGE </span><br><span class='address'>2901 Bayview Avenue, Toronto, ON</span><br><br>TYPE: Community Mall<br><br>TOTAL GLA: 444,000 square feet<br><br>ANCILLARY: 267,669 square feet<br><br>ANCHOR TENANTS:<br>Loblaws\t\t\t\t119,319 square feet<br>Chapters\t\t\t\t30,963 square feet<br>LCBO\t\t\t\t\t26,049 square feet<br><br>DEMOGRAPHICS (2015 PROJECTIONS):<br><br>\t\t\t\t1 km\t\t3 km\t\t5 km<br>Total Population\t\t18,288\t146,659\t330,090<br>Total Households\t\t7,444\t60,520\t128,228<br>Avg. Household Income\t$106,385\t$115,485\t$120,795<br><br><br><br><br><br><br><br>MARKET SUMMARY:<br>Bayview Village is one of Canada's most prestigious shopping centres. Catering to discerning, affluent customers seeking unique merchandise in an inviting, upscale environment, the 440,000 square foot Centre located at Bayview and Sheppard Avenues in Toronto, is home to over 110 one-of-a-kind and luxury retailers carrying the latest fashion designs and trends.</p>",

"floorPlan": {"thumbFile":"data/thumbs/property-5/featured.jpg", "imgFile":"data/images/property-5/featured.jpg"}, 
"galleryImgs":[
{"title":"", "thumbFile":"data/thumbs/property-5/thumb-01.jpg", "imgFile":"data/images/property-5/image-01.jpg"}, 
{"title":"", "thumbFile":"data/thumbs/property-5/thumb-02.jpg", "imgFile":"data/images/property-5/image-02.jpg"}, 
{"title":"", "thumbFile":"data/thumbs/property-5/thumb-03.jpg", "imgFile":"data/images/property-5/image-03.jpg"}, 
{"title":"", "thumbFile":"data/thumbs/property-5/thumb-04.jpg", "imgFile":"data/images/property-5/image-04.jpg"}
]},

{"propName":"EGLINTON SQUARE", "propThumb":"data/thumbs/property-6/thumb-01.jpg", 

"propDesc": "<p><span class='intro'>EGLINTON SQUARE</span><br><span class='address'>1-70 Eglinton Square Blvd., Toronto, ON</span><br><br>TYPE: Enclosed Regional Shopping Centre<br><br>EXPANSION/RENOVATION:1957/1962/1964/1982<br><br>TOTAL GLA: 274,132 square feet<br><br>ANCILLARY: 125,476 square feet<br><br>ANCHOR TENANTS:<br>The Bay\t\t\t130,801 square feet<br>Shoppers Drug Mart\t71,684 square feet<br>Dollarama\t\t\t7,578 square feet<br>TD Canada Trust\t\t9,653 square feet<br>Metro (Shadow Anchor)\t5,547 square feet<br><br>ANCILLARY:<br>289,873 square feet (27 stores and services)<br><br>DEMOGRAPHICS (2015 PROJECTIONS):<br><br>\t\t\t\t1 km\t\t3 km\t\t5 km<br>Total Population\t\t15,791\t126,434\t354,024<br>Total Households\t\t6,209\t47,575\t133,075<br>Avg. Household Income\t$75,457\t$73,936\t$77,160<br><br>MARKET SUMMARY:<br>Eglinton Square is a 286,000 s.f. enclosed shopping centre conveniently located at the intersection of Eglinton Avenue East and Victoria Park. The Shopping Centre is anchored by the Bay, and Shoppers Drug Mart along with Metro as a shadow anchor. The mall acts as a community hub with a stable and loyal customer base which comprises of many seniors and young families. The primary trade area is undergoing a transition from a European based population to multi ethnic, bringing in new and younger families and a gentrification of the area.<br><br>The centre sits in a densely populated area with over and 47,000 households and 126,000 residents within a 3 kilometre radius. Surrounded by mid-century homes, apartments, and new condominium developments, this high density area continues to grow in demand due to affordability and proximity to Toronto’s downtown core.<br><br>Plans for the new Eglinton Light Rail Transit, in approximately 2020, will have stops at the immediate east and west ends of the Shopping Centre at Victoria Park and Pharmacy Avenue.</p>",

"floorPlan": {"thumbFile":"data/thumbs/property-6/floorplan.png", "imgFile":"data/plans/plan-6.swf"}, 
"galleryImgs":[
{"title":"", "thumbFile":"data/thumbs/property-6/thumb-01.jpg", "imgFile":"data/images/property-6/image-01.jpg"}, 
{"title":"", "thumbFile":"data/thumbs/property-6/thumb-02.jpg", "imgFile":"data/images/property-6/image-02.jpg"}, 
{"title":"", "thumbFile":"data/thumbs/property-6/thumb-03.jpg", "imgFile":"data/images/property-6/image-03.jpg"}, 
{"title":"", "thumbFile":"data/thumbs/property-6/thumb-04.jpg", "imgFile":"data/images/property-6/image-04.jpg"}
]},

{"propName":"WHITE OAKS MALL", "propThumb":"data/thumbs/property-7/thumb-01.jpg", 

"propDesc": "<p><span class='intro'>WHITE OAKS MALL</span><br><span class='address'>1105 Wellington Road, London, ON</span><br><br>TYPE: Regional Enclosed Shopping Centre<br><br>EXPANSIONS/RENOVATIONS: 2006/2007/2008/2009/2010<br><br>TOTAL GLA: 698,500 square feet<br><br>ANCILLARY: 300,500 square feet<br><br>MAJOR TENANTS:<br>The Bay\t\t165,000 square feet<br>Wal-Mart\t\t151,000 square feet<br>SportChek\t\t20,000 square feet<br>H&M\t\t\t18,000 square feet<br>Ardene\t\t16,000 square feet<br>Urban Planet\t15,000 square feet<br>Dollarama\t\t13,000 square feet<br><br>DEMOGRAPHICS:<br>\t\t\t\t1 km\t\t3 km\t\t5 km<br>Total Population\t\t7,146\t41,369\t98,992<br>Total Households\t\t2,570\t15,205\t40,140<br>Avg. Household Income\t$78,038\t$77,516\t$73,302<br><br>MARKET SUMMARY:<br>White Oaks Mall is London Ontario’s premier shopping centre. In a prime location close to Highway 401, White Oaks Mall’s 692,912 Square feet of retail space offers a diverse selection of retailers and attracts customers from across southwestern Ontario. Anchored by The Bay and Wal-Mart, the tenant mix includes desired fashion retailers such as H&M, Coach, Guess, Urban Planet and Sephora.<br><br>White Oaks Mall is very active in supporting community groups, Western Fair District and the London Knights (OHL Hockey Team).</p>",

"floorPlan": {"thumbFile":"data/thumbs/property-7/floorplan.png", "imgFile":"data/plans/plan-7.swf"}, 
"galleryImgs":[
{"title":"", "thumbFile":"data/thumbs/property-7/thumb-01.jpg", "imgFile":"data/images/property-7/image-01.jpg"}, 
{"title":"", "thumbFile":"data/thumbs/property-7/thumb-02.jpg", "imgFile":"data/images/property-7/image-02.jpg"}, 
{"title":"", "thumbFile":"data/thumbs/property-7/thumb-03.jpg", "imgFile":"data/images/property-7/image-03.jpg"},
{"title":"", "thumbFile":"data/thumbs/property-7/thumb-04.jpg", "imgFile":"data/images/property-7/image-04.jpg"}
]},


{"propName":"10 DUNDAS EAST", "propThumb":"data/thumbs/property-8/thumb-04.jpg", 

"propDesc": "<p><span class='intro'>10 DUNDAS EAST </span><br><span class='address'>10 Dundas East, Toronto, ON<br>(Yonge Street and Dundas Street East)</span><br><br>TYPE: Mixed use office/retail<br><br>EXPANSIONS/RENOVATIONS: 2012 and 2013<br><br>TOTAL GLA: 328,000 square feet<br><br>ANCILLARY: 153,939 square feet<br><br>MAJOR TENANTS:<br>Cineplex\t\t\t\t\t97,031 square feet<br>Goodlife Fitness\t\t\t\t37,898 square feet<br>Future Shop\t\t\t\t\t28,019 square feet<br>Shoppers Drug Mart\t\t\t11,113 square feet<br><br>DEMOGRAPHICS (2015 PROJECTIONS):<br><br>\t\t\t\t1 km\t\t3 km\t\t5 km<br>Total Population\t\t46,779\t242,503\t471,343<br>Total Households\t\t27,263\t127,033\t228,605<br>Avg. Household Income\t$77,002\t$97,361\t$102,563<br><br><br><br><br><br><br><br>MARKET SUMMARY:<br>10 Dundas East located at the Centre of downtown Toronto is one of the City’s most animated and vibrant commercial hubs and occupies one of the busiest intersections in Canada. The 328,000 square foot enclosed, multi-level mixed use building has excellent exposure to Dundas Square – a popular focal point of the downtown community which has been designated as a public open space and event venue. 10 Dundas East is home to the second highest grossing theatre in Toronto and the highest grossing Future Shop in Canada, while Jack Astor’s and Milestones are both producing at the top of their chains.</p>",

"floorPlan": {"thumbFile":"data/thumbs/property-8/floorplan.png", "imgFile":"data/plans/plan-8.swf"}, 
"galleryImgs":[
{"title":"", "thumbFile":"data/thumbs/property-8/thumb-04.jpg", "imgFile":"data/images/property-8/image-04.jpg"}, 
{"title":"", "thumbFile":"data/thumbs/property-8/thumb-01.jpg", "imgFile":"data/images/property-8/image-01.jpg"}, 
{"title":"", "thumbFile":"data/thumbs/property-8/thumb-02.jpg", "imgFile":"data/images/property-8/image-02.jpg"}, 
{"title":"", "thumbFile":"data/thumbs/property-8/thumb-03.jpg", "imgFile":"data/images/property-8/image-03.jpg"}
]}

]}